Data 624 Homework 4: Modeling
…
The following table shows the missing rate of each predictor.

res <- Soybean %>%
  gather("predictor", "value", 2:36) %>%
  group_by(predictor) %>%
  summarise(na.percent=sum(is.na(value))/n()) %>%
  arrange(desc(na.percent))

## Warning: attributes are not identical across measure variables;
## they will be dropped

res

## # A tibble: 35 x 2
##    predictor       na.percent
##    <chr>                <dbl>
##  1 hail                 0.177
##  2 lodging              0.177
##  3 seed.tmt             0.177
##  4 sever                0.177
##  5 germ                 0.164
##  6 leaf.mild            0.158
##  7 fruit.spots          0.155
##  8 fruiting.bodies      0.155
##  9 seed.discolor        0.155
## 10 shriveling           0.155
## # ... with 25 more rows
…
The concern with dropping rows with multiple missing values is that certain classes will have too little data to classify. Instead, I will drop columns that are degenerate and have many missing values, and impute the rest.

res <- Soybean %>%
  gather("predictor", "value", 2:36) %>%
  group_by(predictor) %>%
  summarise(na.percent=sum(is.na(value))/n()) %>%
  arrange(desc(na.percent))

## Warning: attributes are not identical across measure variables;
## they will be dropped

res

## # A tibble: 35 x 2
##    predictor       na.percent
##    <chr>                <dbl>
##  1 hail                 0.177
##  2 lodging              0.177
##  3 seed.tmt             0.177
##  4 sever                0.177
##  5 germ                 0.164
##  6 leaf.mild            0.158
##  7 fruit.spots          0.155
##  8 fruiting.bodies      0.155
##  9 seed.discolor        0.155
## 10 shriveling           0.155
## # ... with 25 more rows
…
